// Evol scripts.
// Author:
//    Micksha
// Description:
//    Filipa, a Legion Guard inside Legion HQ in Tulim.
// THIS IS A PLACEHOLDER!

020-2-5,47,28,0	script	Filipa	NPC_RAIJIN_FEMALE_LEGION_ARTIS,{
    speech
        l("Hi there."),
        l("This is no place for you, get moving!"),
        l("If you want, you can hunt something, or cook something, or craft something."),
		l("Whatever, just get out of here already!");
    close;

OnInit:
    .bodytype = BODYTYPE_2;
    .distance = 4;
    end;
}
